Working with data frames
…
Group by, summarize, and arrange

How many tornado fatalities in each state?

Torn.df |>
  dplyr::group_by(st) |>
  dplyr::summarize(nFatalities = sum(fat)) |>
  dplyr::arrange(desc(nFatalities))

# A tibble: 53 × 2
   st    nFatalities
   <chr>       <dbl>
 1 AL            665
 2 TX            591
 3 MS            476
 4 OK            438
 5 TN            407
 6 AR            400
 7 MO            350
 8 IN            268
 9 GA            230
10 OH            226
# … with 43 more rows
…
